Final_assignment
…
scoobydoo %>%
  count(monster_type) %>%
  view()

scoobydoo %>%
  count(imdb) %>%
  view()

##Which is the best episode based on imdb ratings?

scoobydoo %>%
  arrange(desc(imdb)) 

## # A tibble: 603 x 75
##    index series_name  network season title  imdb  engagement date_aired run_time
##    <dbl> <chr>        <chr>   <chr>  <chr>  <chr> <chr>      <date>        <dbl>
##  1   587 Scooby-Doo ~ Boomer~ 2      The P~ NULL  NULL       2020-10-01       22
##  2   588 Scooby-Doo ~ Boomer~ 2      The L~ NULL  NULL       2020-10-01       22
##  3   589 Scooby-Doo ~ Boomer~ 2      The H~ NULL  NULL       2020-10-01       23
##  4   590 Scooby-Doo ~ Boomer~ 2      The H~ NULL  NULL       2020-10-01       22
##  5   591 Scooby-Doo ~ Boomer~ 2      A Mov~ NULL  NULL       2020-10-01       22
##  6   592 Scooby-Doo ~ Boomer~ 2      The F~ NULL  NULL       2020-10-01       22
##  7   593 Scooby-Doo ~ Boomer~ 2      A Fas~ NULL  NULL       2020-10-01       22
##  8   594 Scooby-Doo ~ Boomer~ 2      Scoob~ NULL  NULL       2020-10-01       22
##  9   595 Scooby-Doo ~ Boomer~ 2      Cavem~ NULL  NULL       2020-10-01       22
## 10   596 Scooby-Doo ~ Boomer~ 2      The C~ NULL  NULL       2020-10-01       22
## # ... with 593 more rows, and 66 more variables: format <chr>,
## #   monster_name <chr>, monster_gender <chr>, monster_type <chr>,
## #   monster_subtype <chr>, monster_species <chr>, monster_real <chr>,
## #   monster_amount <dbl>, caught_fred <chr>, caught_daphnie <chr>,
## #   caught_velma <chr>, caught_shaggy <chr>, caught_scooby <chr>,
## #   captured_fred <chr>, captured_daphnie <chr>, captured_velma <chr>,
## #   captured_shaggy <chr>, captured_scooby <chr>, unmask_fred <chr>, ...
…
scoobydoo %>%
  mutate(network = recode_factor(network, "ABC" = "1", "Adult Swim" = "2", "Cartoon Network" = "3", "CBS" = "4", "Syndication" = "5", "TBC" = "6", "The CW" = "7", "The WB" = "8", "Warner Bros. Picture" = "9")) 

## # A tibble: 603 x 75
##    index series_name  network season title  imdb  engagement date_aired run_time
##    <dbl> <chr>        <fct>   <chr>  <chr>  <chr> <chr>      <date>        <dbl>
##  1     1 Scooby Doo,~ 4       1      What ~ 8.1   556        1969-09-13       21
##  2     2 Scooby Doo,~ 4       1      A Clu~ 8.1   479        1969-09-20       22
##  3     3 Scooby Doo,~ 4       1      Hassl~ 8     455        1969-09-27       21
##  4     4 Scooby Doo,~ 4       1      Mine ~ 7.8   426        1969-10-04       21
##  5     5 Scooby Doo,~ 4       1      Decoy~ 7.5   391        1969-10-11       21
##  6     6 Scooby Doo,~ 4       1      What ~ 8.4   384        1969-10-18       21
##  7     7 Scooby Doo,~ 4       1      Never~ 7.6   358        1969-10-25       21
##  8     8 Scooby Doo,~ 4       1      Foul ~ 8.2   358        1969-11-01       21
##  9     9 Scooby Doo,~ 4       1      The B~ 8.1   371        1969-11-08       21
## 10    10 Scooby Doo,~ 4       1      Bedla~ 8     346        1969-11-15       21
## # ... with 593 more rows, and 66 more variables: format <chr>,
## #   monster_name <chr>, monster_gender <chr>, monster_type <chr>,
## #   monster_subtype <chr>, monster_species <chr>, monster_real <chr>,
## #   monster_amount <dbl>, caught_fred <chr>, caught_daphnie <chr>,
## #   caught_velma <chr>, caught_shaggy <chr>, caught_scooby <chr>,
## #   captured_fred <chr>, captured_daphnie <chr>, captured_velma <chr>,
## #   captured_shaggy <chr>, captured_scooby <chr>, unmask_fred <chr>, ...
…
